{
   "container":{
      "type":"DOCKER",
      "docker":{
         "image":"echo-server:v0.1"
      }
   },
   "id":"echo-server",
   "instances":"1",
   "cpus":"0.5",
   "mem":"128",
   "ports": [2000],
   "uris":[
   ],
   "cmd": "/usr/bin/ncat -l 2000 --keep-open --exec /bin/cat"
}
